85cac029d0b9b519257daa42f5968d45 kwarto
79090c0bd8ec6237c1df3a35c4ea3560 jednak
fc3bd63d9d1f90850b508e5da77b027b czerwonawolila
1041830c05210a2ea7a4fa6208eb5129 timpani
9cc9a234ee27747e07fcc2a5f512da4a kuandu
59847423d90bc09fb4902214d20897af hawana
69184f9594e608e736284fbf1f400d77 bezecniej
6e4ca478d631e18e92160f066ae1ed88 najsnobistyczniej
831d078946fda1313756ee342d02cb3e caudillismo
bcd8845e2a26904415519037d65dca29 metastasis
