61357474c4767a37319744b89b402433 nAjbaŁamutNiej
9834f16d619011d20d374201d6705e83 PłyNnieJ
3e98604c675ce883f82639ae7ab67221 najsprAwieDLiwiej
702036d466da1915ddc5afdac17b5b7f tłOczniEJ
c96748e229434ac69304399b8929f211 OFfshoRe
46daac4a5626c22d2e808a776af64361 SUruKusu
74ff23dba92efa8bc3c5ec7fd2c981f9 sANDhi
d95e9c9274b9c20940bf2530a4f07a0f oNLinE
0bd446d391a89739fb24108a7f377c4a FalIścieJ
e3417ecac3972416017f8e124da8f8f6 WiEczóR
